<?xml version="1.0" encoding="UTF-8" standalone="no"?>
<!-- Created with Inkscape (http://www.inkscape.org/) -->

<svg
   xmlns:dc="http://purl.org/dc/elements/1.1/"
   xmlns:cc="http://creativecommons.org/ns#"
   xmlns:rdf="http://www.w3.org/1999/02/22-rdf-syntax-ns#"
   xmlns:svg="http://www.w3.org/2000/svg"
   xmlns="http://www.w3.org/2000/svg"
   xmlns:xlink="http://www.w3.org/1999/xlink"
   xmlns:sodipodi="http://sodipodi.sourceforge.net/DTD/sodipodi-0.dtd"
   xmlns:inkscape="http://www.inkscape.org/namespaces/inkscape"
   width="1280"
   height="720"
   id="svg2"
   version="1.1"
   inkscape:version="0.92.2 5c3e80d, 2017-08-06"
   sodipodi:docname="simple.svg">
  <style
     type="text/css"
     id="style3">
		@font-face{
		font-family: 'Franklin Gothic Heavy';
		src: url('/fonts/Franklin_Gothic_Heavy-Regular.ttf'),
		     url('/fonts/Franklin_Gothic_Heavy-Regular.eot'); /* IE9 */
		}

		@font-face{
		font-family: 'Franklin Gothic Heavy';
		src: url('/fonts/Franklin_Gothic_Heavy-Italic.ttf'),
		     url('/fonts/Franklin_Gothic_Heavy-Italic.eot'); /* IE9 */
		font-style: italic;
		}
	</style>
  <defs
     id="defs4" />
  <sodipodi:namedview
     id="base"
     pagecolor="#ffffff"
     bordercolor="#666666"
     borderopacity="1.0"
     inkscape:pageopacity="0.0"
     inkscape:pageshadow="2"
     inkscape:zoom="0.76111111"
     inkscape:cx="640"
     inkscape:cy="360"
     inkscape:document-units="px"
     inkscape:current-layer="layer2"
     showgrid="true"
     inkscape:window-width="1276"
     inkscape:window-height="755"
     inkscape:window-x="4"
     inkscape:window-y="1"
     inkscape:window-maximized="1">
    <inkscape:grid
       type="xygrid"
       id="grid3004"
       empspacing="5"
       visible="true"
       enabled="true"
       snapvisiblegridlinesonly="true"
       dotted="true" />
    <sodipodi:guide
       position="0,760"
       orientation="0,240"
       id="guide1"
       inkscape:locked="false" />
    <sodipodi:guide
       position="1280,760"
       orientation="-200,0"
       id="guide2"
       inkscape:locked="false" />
  </sodipodi:namedview>
  <metadata
     id="metadata1">178<rdf:RDF>
  <cc:Work
     rdf:about="">
    <dc:format>image/svg+xml</dc:format>
    <dc:type
       rdf:resource="http://purl.org/dc/dcmitype/StillImage" />
    <dc:title></dc:title>
  </cc:Work>
</rdf:RDF>
</metadata>
  <g
     inkscape:label="Background"
     inkscape:groupmode="layer"
     id="layer1"
     sodipodi:insensitive="true">
    <image
       sodipodi:absref="/Users/vpalmu/rails/isk/data/templates/backgrounds/empty.png"
       xlink:href="backgrounds/empty.png"
       y="0"
       x="0"
       height="720"
       width="1280"
       id="background_picture" />
  </g>
  <g
     inkscape:groupmode="layer"
     id="layer2"
     inkscape:label="Slide content">
    <text
       font-size="70"
       font-weight="normal"
       id="header"
       x="30"
       y="100"
       style="font-weight:normal;font-size:70px;line-height:0%;font-family:'Franklin Gothic Heavy';text-anchor:start;fill:#ffffff;stroke:#000000;stroke-width:2">
      <tspan
         sodipodi:role="line"
         xml:space="preserve"
         id="svg_17"
         x="30"
         y="100"
         style="font-size:70px;line-height:1">Slide header</tspan>    </text>
    <text
       font-size="48"
       font-weight="normal"
       id="slide_content"
       x="30"
       y="200"
       style="font-weight:normal;font-size:48px;line-height:0%;font-family:'Franklin Gothic Heavy';text-anchor:start;fill:#ffffff;stroke:#000000;stroke-width:2">
      <tspan
         xml:space="preserve"
         sodipodi:role="line"
         id="svg_166"
         x="30"
         y="200"
         style="font-size:48px;line-height:1">slide contents</tspan>      <tspan
         dy="1em"
         xml:space="preserve"
         id="svg_167"
         sodipodi:role="line"
         x="30"
         y="248"
         style="font-size:48px;line-height:1">continues</tspan>      <tspan
         dy="1em"
         xml:space="preserve"
         id="svg_168"
         sodipodi:role="line"
         x="30"
         y="296"
         style="font-size:48px;line-height:1">couple lines</tspan>      <tspan
         dy="0 1em"
         xml:space="preserve"
         id="svg_169"
         sodipodi:role="line"
         x="30"
         y="344"
         style="font-size:48px;line-height:1"> </tspan>      <tspan
         dy="1em"
         xml:space="preserve"
         id="svg_170"
         sodipodi:role="line"
         x="30"
         y="392"
         style="font-size:48px;line-height:1">and another after empty line</tspan>    </text>
  </g>
</svg>
